<svg width="146" height="146" viewBox="0 0 146 146" fill="none" xmlns="http://www.w3.org/2000/svg">
<circle cx="73" cy="73" r="71.5" stroke="#FFDB1E" stroke-width="3"/>
<circle cx="44" cy="51" r="8" fill="#FFDB1E"/>
<circle cx="103" cy="51" r="8" fill="#FFDB1E"/>
<rect x="45" y="103" width="56" height="4" fill="#FFDB1E"/>
</svg>
